nvedit.c:214:12:_do_env_set.isra.0.constprop	72	static
nvedit.c:75:5:get_env_id	0	static
nvedit.c:286:5:setenv	24	static
nvedit.c:307:5:setenv_ulong	8	static
nvedit.c:322:5:setenv_hex	32	static
nvedit.c:730:5:envmatch	24	static
nvedit.c:649:5:getenv_f	32	static
nvedit.c:625:7:getenv	56	static
nvedit.c:330:7:getenv_hex	24	static
nvedit.c:693:7:getenv_ulong	16	static
