bootstage.h:374:19:bootstage_relocate	0	static
board_r.c:103:12:initr_reloc	0	static
board_r.c:335:12:power_init_board	0	static
board_r.c:340:12:initr_announce	0	static
board_r.c:685:12:run_main_loop	8	static
board_r.c:600:12:initr_net	8	static
board_r.c:535:12:initr_ethaddr	8	static
board_r.c:527:12:initr_enable_interrupts	8	static
board_r.c:510:12:initr_jumptable	8	static
board_r.c:481:12:initr_env	8	static
board_r.c:442:12:initr_mmc	8	static
board_r.c:422:12:initr_nand	8	static
board_r.c:176:12:initr_serial	8	static
board_r.c:303:12:initr_dm	0	static
board_r.c:328:12:initr_bootstage	8	static
board_r.c:255:12:initr_malloc	8	static
board_r.c:129:12:initr_reloc_global_data	8	static
board_r.c:116:12:initr_caches	8	static
board_r.c:270:12:initr_console_record	0	static
board_r.c:94:12:initr_trace	0	static
board_r.c:246:12:initr_barrier	0	static
board_r.c:66:12:board_flash_wp_on	0	static
board_r.c:76:13:cpu_secondary_init_r	0	static
board_r.c:80:12:initr_secondary_cpu	8	static
board_r.c:124:12:fixup_cpu	0	static
board_r.c:904:6:board_init_r	8	static
