net.c:352:13:net_clear_handlers	0	static
net.c:665:13:start_again_timeout_handler	0	static
net.c:729:13:dummy_handler	0	static
net.c:230:12:on_ipaddr	8	static
net.c:242:12:on_gatewayip	8	static
net.c:254:12:on_netmask	8	static
net.c:266:12:on_serverip	8	static
net.c:344:13:net_init_loop	8	static
net.c:320:6:net_auto_load	8	static
net.c:364:6:net_init	8	static
net.c:670:5:net_start_again	16	static
net.c:395:5:net_loop	48	static
net.c:735:11:net_get_udp_handler	0	static
net.c:740:6:net_set_udp_handler	0	static
net.c:749:11:net_get_arp_handler	0	static
net.c:754:6:net_set_arp_handler	0	static
net.c:770:6:net_set_timeout_handler	8	static
net.c:1035:6:net_process_received_packet	40	static
net.c:1381:1:net_eth_hdr_size	0	static
net.c:1393:5:net_set_ether	24	static
net.c:1418:5:net_update_ether	16	static
net.c:1441:6:net_set_ip_header	24	static
net.c:1462:6:net_set_udp_header	24	static
net.c:785:5:net_send_udp_packet	40	static
net.c:1486:6:copy_filename	0	static
net.c:210:12:on_bootfile	8	static
net.c:1506:14:random_port	8	static
net.c:1512:6:ip_to_string	16	static
net.c:1523:6:vlan_to_string	0	static
net.c:1536:8:string_to_vlan	8	static
net.c:278:12:on_nvlan	8	static
net.c:290:12:on_vlan	8	static
net.c:1551:8:getenv_vlan	8	static
